%YAML 1.1
%TAG !u! tag:unity3d.com,2011:
--- !u!114 &11400000
MonoBehaviour:
  m_ObjectHideFlags: 0
  m_CorrespondingSourceObject: {fileID: 0}
  m_PrefabInternal: {fileID: 0}
  m_GameObject: {fileID: 0}
  m_Enabled: 1
  m_EditorHideFlags: 0
  m_Script: {fileID: 11500000, guid: 62d596213e856d740b0dd29fd6442abe, type: 3}
  m_Name: WaterArrayAssset
  m_EditorClassIdentifier: 
  m_particles:
  - {x: -0.45, y: -0.14999996, z: -0.04999997, w: 1}
  - {x: -0.45, y: -0.14999996, z: 0.049999993, w: 1}
  - {x: -0.45, y: -0.049999945, z: -0.14999999, w: 1}
  - {x: -0.45, y: -0.049999945, z: -0.04999997, w: 1}
  - {x: -0.45, y: -0.049999945, z: 0.049999993, w: 1}
  - {x: -0.45, y: -0.049999945, z: 0.15000002, w: 1}
  - {x: -0.45, y: 0.05000002, z: -0.14999999, w: 1}
  - {x: -0.45, y: 0.05000002, z: -0.04999997, w: 1}
  - {x: -0.45, y: 0.05000002, z: 0.049999993, w: 1}
  - {x: -0.45, y: 0.05000002, z: 0.15000002, w: 1}
  - {x: -0.45, y: 0.15000005, z: -0.04999997, w: 1}
  - {x: -0.45, y: 0.15000005, z: 0.049999993, w: 1}
  - {x: -0.35, y: -0.24999996, z: -0.24999999, w: 1}
  - {x: -0.35, y: -0.24999996, z: -0.14999999, w: 1}
  - {x: -0.35, y: -0.24999996, z: -0.04999997, w: 1}
  - {x: -0.35, y: -0.24999996, z: 0.049999993, w: 1}
  - {x: -0.35, y: -0.24999996, z: 0.15000002, w: 1}
  - {x: -0.35, y: -0.24999996, z: 0.24999999, w: 1}
  - {x: -0.35, y: -0.14999996, z: -0.24999999, w: 1}
  - {x: -0.35, y: -0.14999996, z: -0.14999999, w: 1}
  - {x: -0.35, y: -0.14999996, z: -0.04999997, w: 1}
  - {x: -0.35, y: -0.14999996, z: 0.049999993, w: 1}
  - {x: -0.35, y: -0.14999996, z: 0.15000002, w: 1}
  - {x: -0.35, y: -0.14999996, z: 0.24999999, w: 1}
  - {x: -0.35, y: -0.049999945, z: -0.24999999, w: 1}
  - {x: -0.35, y: -0.049999945, z: -0.14999999, w: 1}
  - {x: -0.35, y: -0.049999945, z: -0.04999997, w: 1}
  - {x: -0.35, y: -0.049999945, z: 0.049999993, w: 1}
  - {x: -0.35, y: -0.049999945, z: 0.15000002, w: 1}
  - {x: -0.35, y: -0.049999945, z: 0.24999999, w: 1}
  - {x: -0.35, y: 0.05000002, z: -0.35000002, w: 1}
  - {x: -0.35, y: 0.05000002, z: -0.24999999, w: 1}
  - {x: -0.35, y: 0.05000002, z: -0.14999999, w: 1}
  - {x: -0.35, y: 0.05000002, z: -0.04999997, w: 1}
  - {x: -0.35, y: 0.05000002, z: 0.049999993, w: 1}
  - {x: -0.35, y: 0.05000002, z: 0.15000002, w: 1}
  - {x: -0.35, y: 0.05000002, z: 0.24999999, w: 1}
  - {x: -0.35, y: 0.05000002, z: 0.35000005, w: 1}
  - {x: -0.35, y: 0.15000005, z: -0.24999999, w: 1}
  - {x: -0.35, y: 0.15000005, z: -0.14999999, w: 1}
  - {x: -0.35, y: 0.15000005, z: -0.04999997, w: 1}
  - {x: -0.35, y: 0.15000005, z: 0.049999993, w: 1}
  - {x: -0.35, y: 0.15000005, z: 0.15000002, w: 1}
  - {x: -0.35, y: 0.15000005, z: 0.24999999, w: 1}
  - {x: -0.35, y: 0.25, z: -0.24999999, w: 1}
  - {x: -0.35, y: 0.25, z: -0.14999999, w: 1}
  - {x: -0.35, y: 0.25, z: -0.04999997, w: 1}
  - {x: -0.35, y: 0.25, z: 0.049999993, w: 1}
  - {x: -0.35, y: 0.25, z: 0.15000002, w: 1}
  - {x: -0.35, y: 0.25, z: 0.24999999, w: 1}
  - {x: -0.35, y: 0.35000008, z: -0.04999997, w: 1}
  - {x: -0.35, y: 0.35000008, z: 0.049999993, w: 1}
  - {x: -0.24999996, y: -0.35, z: -0.24999999, w: 1}
  - {x: -0.24999996, y: -0.35, z: -0.14999999, w: 1}
  - {x: -0.24999996, y: -0.35, z: -0.04999997, w: 1}
  - {x: -0.24999996, y: -0.35, z: 0.049999993, w: 1}
  - {x: -0.24999996, y: -0.35, z: 0.15000002, w: 1}
  - {x: -0.24999996, y: -0.35, z: 0.24999999, w: 1}
  - {x: -0.24999996, y: -0.24999996, z: -0.35000002, w: 1}
  - {x: -0.24999996, y: -0.24999996, z: -0.24999999, w: 1}
  - {x: -0.24999996, y: -0.24999996, z: -0.14999999, w: 1}
  - {x: -0.24999996, y: -0.24999996, z: -0.04999997, w: 1}
  - {x: -0.24999996, y: -0.24999996, z: 0.049999993, w: 1}
  - {x: -0.24999996, y: -0.24999996, z: 0.15000002, w: 1}
  - {x: -0.24999996, y: -0.24999996, z: 0.24999999, w: 1}
  - {x: -0.24999996, y: -0.24999996, z: 0.35000005, w: 1}
  - {x: -0.24999996, y: -0.14999996, z: -0.35000002, w: 1}
  - {x: -0.24999996, y: -0.14999996, z: -0.24999999, w: 1}
  - {x: -0.24999996, y: -0.14999996, z: -0.14999999, w: 1}
  - {x: -0.24999996, y: -0.14999996, z: -0.04999997, w: 1}
  - {x: -0.24999996, y: -0.14999996, z: 0.049999993, w: 1}
  - {x: -0.24999996, y: -0.14999996, z: 0.15000002, w: 1}
  - {x: -0.24999996, y: -0.14999996, z: 0.24999999, w: 1}
  - {x: -0.24999996, y: -0.14999996, z: 0.35000005, w: 1}
  - {x: -0.24999996, y: -0.049999945, z: -0.35000002, w: 1}
  - {x: -0.24999996, y: -0.049999945, z: -0.24999999, w: 1}
  - {x: -0.24999996, y: -0.049999945, z: -0.14999999, w: 1}
  - {x: -0.24999996, y: -0.049999945, z: -0.04999997, w: 1}
  - {x: -0.24999996, y: -0.049999945, z: 0.049999993, w: 1}
  - {x: -0.24999996, y: -0.049999945, z: 0.15000002, w: 1}
  - {x: -0.24999996, y: -0.049999945, z: 0.24999999, w: 1}
  - {x: -0.24999996, y: -0.049999945, z: 0.35000005, w: 1}
  - {x: -0.24999996, y: 0.05000002, z: -0.35000002, w: 1}
  - {x: -0.24999996, y: 0.05000002, z: -0.24999999, w: 1}
  - {x: -0.24999996, y: 0.05000002, z: -0.14999999, w: 1}
  - {x: -0.24999996, y: 0.05000002, z: -0.04999997, w: 1}
  - {x: -0.24999996, y: 0.05000002, z: 0.049999993, w: 1}
  - {x: -0.24999996, y: 0.05000002, z: 0.15000002, w: 1}
  - {x: -0.24999996, y: 0.05000002, z: 0.24999999, w: 1}
  - {x: -0.24999996, y: 0.05000002, z: 0.35000005, w: 1}
  - {x: -0.24999996, y: 0.15000005, z: -0.35000002, w: 1}
  - {x: -0.24999996, y: 0.15000005, z: -0.24999999, w: 1}
  - {x: -0.24999996, y: 0.15000005, z: -0.14999999, w: 1}
  - {x: -0.24999996, y: 0.15000005, z: -0.04999997, w: 1}
  - {x: -0.24999996, y: 0.15000005, z: 0.049999993, w: 1}
  - {x: -0.24999996, y: 0.15000005, z: 0.15000002, w: 1}
  - {x: -0.24999996, y: 0.15000005, z: 0.24999999, w: 1}
  - {x: -0.24999996, y: 0.15000005, z: 0.35000005, w: 1}
  - {x: -0.24999996, y: 0.25, z: -0.35000002, w: 1}
  - {x: -0.24999996, y: 0.25, z: -0.24999999, w: 1}
  - {x: -0.24999996, y: 0.25, z: -0.14999999, w: 1}
  - {x: -0.24999996, y: 0.25, z: -0.04999997, w: 1}
  - {x: -0.24999996, y: 0.25, z: 0.049999993, w: 1}
  - {x: -0.24999996, y: 0.25, z: 0.15000002, w: 1}
  - {x: -0.24999996, y: 0.25, z: 0.24999999, w: 1}
  - {x: -0.24999996, y: 0.25, z: 0.35000005, w: 1}
  - {x: -0.24999996, y: 0.35000008, z: -0.24999999, w: 1}
  - {x: -0.24999996, y: 0.35000008, z: -0.14999999, w: 1}
  - {x: -0.24999996, y: 0.35000008, z: -0.04999997, w: 1}
  - {x: -0.24999996, y: 0.35000008, z: 0.049999993, w: 1}
  - {x: -0.24999996, y: 0.35000008, z: 0.15000002, w: 1}
  - {x: -0.24999996, y: 0.35000008, z: 0.24999999, w: 1}
  - {x: -0.14999996, y: -0.45, z: -0.04999997, w: 1}
  - {x: -0.14999996, y: -0.45, z: 0.049999993, w: 1}
  - {x: -0.14999996, y: -0.35, z: -0.24999999, w: 1}
  - {x: -0.14999996, y: -0.35, z: -0.14999999, w: 1}
  - {x: -0.14999996, y: -0.35, z: -0.04999997, w: 1}
  - {x: -0.14999996, y: -0.35, z: 0.049999993, w: 1}
  - {x: -0.14999996, y: -0.35, z: 0.15000002, w: 1}
  - {x: -0.14999996, y: -0.35, z: 0.24999999, w: 1}
  - {x: -0.14999996, y: -0.24999996, z: -0.35000002, w: 1}
  - {x: -0.14999996, y: -0.24999996, z: -0.24999999, w: 1}
  - {x: -0.14999996, y: -0.24999996, z: -0.14999999, w: 1}
  - {x: -0.14999996, y: -0.24999996, z: -0.04999997, w: 1}
  - {x: -0.14999996, y: -0.24999996, z: 0.049999993, w: 1}
  - {x: -0.14999996, y: -0.24999996, z: 0.15000002, w: 1}
  - {x: -0.14999996, y: -0.24999996, z: 0.24999999, w: 1}
  - {x: -0.14999996, y: -0.24999996, z: 0.35000005, w: 1}
  - {x: -0.14999996, y: -0.14999996, z: -0.35000002, w: 1}
  - {x: -0.14999996, y: -0.14999996, z: -0.24999999, w: 1}
  - {x: -0.14999996, y: -0.14999996, z: -0.14999999, w: 1}
  - {x: -0.14999996, y: -0.14999996, z: -0.04999997, w: 1}
  - {x: -0.14999996, y: -0.14999996, z: 0.049999993, w: 1}
  - {x: -0.14999996, y: -0.14999996, z: 0.15000002, w: 1}
  - {x: -0.14999996, y: -0.14999996, z: 0.24999999, w: 1}
  - {x: -0.14999996, y: -0.14999996, z: 0.35000005, w: 1}
  - {x: -0.14999996, y: -0.049999945, z: -0.45000002, w: 1}
  - {x: -0.14999996, y: -0.049999945, z: -0.35000002, w: 1}
  - {x: -0.14999996, y: -0.049999945, z: -0.24999999, w: 1}
  - {x: -0.14999996, y: -0.049999945, z: -0.14999999, w: 1}
  - {x: -0.14999996, y: -0.049999945, z: -0.04999997, w: 1}
  - {x: -0.14999996, y: -0.049999945, z: 0.049999993, w: 1}
  - {x: -0.14999996, y: -0.049999945, z: 0.15000002, w: 1}
  - {x: -0.14999996, y: -0.049999945, z: 0.24999999, w: 1}
  - {x: -0.14999996, y: -0.049999945, z: 0.35000005, w: 1}
  - {x: -0.14999996, y: -0.049999945, z: 0.44999996, w: 1}
  - {x: -0.14999996, y: 0.05000002, z: -0.45000002, w: 1}
  - {x: -0.14999996, y: 0.05000002, z: -0.35000002, w: 1}
  - {x: -0.14999996, y: 0.05000002, z: -0.24999999, w: 1}
  - {x: -0.14999996, y: 0.05000002, z: -0.14999999, w: 1}
  - {x: -0.14999996, y: 0.05000002, z: -0.04999997, w: 1}
  - {x: -0.14999996, y: 0.05000002, z: 0.049999993, w: 1}
  - {x: -0.14999996, y: 0.05000002, z: 0.15000002, w: 1}
  - {x: -0.14999996, y: 0.05000002, z: 0.24999999, w: 1}
  - {x: -0.14999996, y: 0.05000002, z: 0.35000005, w: 1}
  - {x: -0.14999996, y: 0.05000002, z: 0.44999996, w: 1}
  - {x: -0.14999996, y: 0.15000005, z: -0.35000002, w: 1}
  - {x: -0.14999996, y: 0.15000005, z: -0.24999999, w: 1}
  - {x: -0.14999996, y: 0.15000005, z: -0.14999999, w: 1}
  - {x: -0.14999996, y: 0.15000005, z: -0.04999997, w: 1}
  - {x: -0.14999996, y: 0.15000005, z: 0.049999993, w: 1}
  - {x: -0.14999996, y: 0.15000005, z: 0.15000002, w: 1}
  - {x: -0.14999996, y: 0.15000005, z: 0.24999999, w: 1}
  - {x: -0.14999996, y: 0.15000005, z: 0.35000005, w: 1}
  - {x: -0.14999996, y: 0.25, z: -0.35000002, w: 1}
  - {x: -0.14999996, y: 0.25, z: -0.24999999, w: 1}
  - {x: -0.14999996, y: 0.25, z: -0.14999999, w: 1}
  - {x: -0.14999996, y: 0.25, z: -0.04999997, w: 1}
  - {x: -0.14999996, y: 0.25, z: 0.049999993, w: 1}
  - {x: -0.14999996, y: 0.25, z: 0.15000002, w: 1}
  - {x: -0.14999996, y: 0.25, z: 0.24999999, w: 1}
  - {x: -0.14999996, y: 0.25, z: 0.35000005, w: 1}
  - {x: -0.14999996, y: 0.35000008, z: -0.24999999, w: 1}
  - {x: -0.14999996, y: 0.35000008, z: -0.14999999, w: 1}
  - {x: -0.14999996, y: 0.35000008, z: -0.04999997, w: 1}
  - {x: -0.14999996, y: 0.35000008, z: 0.049999993, w: 1}
  - {x: -0.14999996, y: 0.35000008, z: 0.15000002, w: 1}
  - {x: -0.14999996, y: 0.35000008, z: 0.24999999, w: 1}
  - {x: -0.14999996, y: 0.45, z: -0.04999997, w: 1}
  - {x: -0.14999996, y: 0.45, z: 0.049999993, w: 1}
  - {x: -0.04999994, y: -0.45, z: -0.14999999, w: 1}
  - {x: -0.04999994, y: -0.45, z: -0.04999997, w: 1}
  - {x: -0.04999994, y: -0.45, z: 0.049999993, w: 1}
  - {x: -0.04999994, y: -0.45, z: 0.15000002, w: 1}
  - {x: -0.04999994, y: -0.35, z: -0.24999999, w: 1}
  - {x: -0.04999994, y: -0.35, z: -0.14999999, w: 1}
  - {x: -0.04999994, y: -0.35, z: -0.04999997, w: 1}
  - {x: -0.04999994, y: -0.35, z: 0.049999993, w: 1}
  - {x: -0.04999994, y: -0.35, z: 0.15000002, w: 1}
  - {x: -0.04999994, y: -0.35, z: 0.24999999, w: 1}
  - {x: -0.04999994, y: -0.24999996, z: -0.35000002, w: 1}
  - {x: -0.04999994, y: -0.24999996, z: -0.24999999, w: 1}
  - {x: -0.04999994, y: -0.24999996, z: -0.14999999, w: 1}
  - {x: -0.04999994, y: -0.24999996, z: -0.04999997, w: 1}
  - {x: -0.04999994, y: -0.24999996, z: 0.049999993, w: 1}
  - {x: -0.04999994, y: -0.24999996, z: 0.15000002, w: 1}
  - {x: -0.04999994, y: -0.24999996, z: 0.24999999, w: 1}
  - {x: -0.04999994, y: -0.24999996, z: 0.35000005, w: 1}
  - {x: -0.04999994, y: -0.14999996, z: -0.45000002, w: 1}
  - {x: -0.04999994, y: -0.14999996, z: -0.35000002, w: 1}
  - {x: -0.04999994, y: -0.14999996, z: -0.24999999, w: 1}
  - {x: -0.04999994, y: -0.14999996, z: -0.14999999, w: 1}
  - {x: -0.04999994, y: -0.14999996, z: -0.04999997, w: 1}
  - {x: -0.04999994, y: -0.14999996, z: 0.049999993, w: 1}
  - {x: -0.04999994, y: -0.14999996, z: 0.15000002, w: 1}
  - {x: -0.04999994, y: -0.14999996, z: 0.24999999, w: 1}
  - {x: -0.04999994, y: -0.14999996, z: 0.35000005, w: 1}
  - {x: -0.04999994, y: -0.14999996, z: 0.44999996, w: 1}
  - {x: -0.04999994, y: -0.049999945, z: -0.45000002, w: 1}
  - {x: -0.04999994, y: -0.049999945, z: -0.35000002, w: 1}
  - {x: -0.04999994, y: -0.049999945, z: -0.24999999, w: 1}
  - {x: -0.04999994, y: -0.049999945, z: -0.14999999, w: 1}
  - {x: -0.04999994, y: -0.049999945, z: -0.04999997, w: 1}
  - {x: -0.04999994, y: -0.049999945, z: 0.049999993, w: 1}
  - {x: -0.04999994, y: -0.049999945, z: 0.15000002, w: 1}
  - {x: -0.04999994, y: -0.049999945, z: 0.24999999, w: 1}
  - {x: -0.04999994, y: -0.049999945, z: 0.35000005, w: 1}
  - {x: -0.04999994, y: -0.049999945, z: 0.44999996, w: 1}
  - {x: -0.04999994, y: 0.05000002, z: -0.45000002, w: 1}
  - {x: -0.04999994, y: 0.05000002, z: -0.35000002, w: 1}
  - {x: -0.04999994, y: 0.05000002, z: -0.24999999, w: 1}
  - {x: -0.04999994, y: 0.05000002, z: -0.14999999, w: 1}
  - {x: -0.04999994, y: 0.05000002, z: -0.04999997, w: 1}
  - {x: -0.04999994, y: 0.05000002, z: 0.049999993, w: 1}
  - {x: -0.04999994, y: 0.05000002, z: 0.15000002, w: 1}
  - {x: -0.04999994, y: 0.05000002, z: 0.24999999, w: 1}
  - {x: -0.04999994, y: 0.05000002, z: 0.35000005, w: 1}
  - {x: -0.04999994, y: 0.05000002, z: 0.44999996, w: 1}
  - {x: -0.04999994, y: 0.15000005, z: -0.45000002, w: 1}
  - {x: -0.04999994, y: 0.15000005, z: -0.35000002, w: 1}
  - {x: -0.04999994, y: 0.15000005, z: -0.24999999, w: 1}
  - {x: -0.04999994, y: 0.15000005, z: -0.14999999, w: 1}
  - {x: -0.04999994, y: 0.15000005, z: -0.04999997, w: 1}
  - {x: -0.04999994, y: 0.15000005, z: 0.049999993, w: 1}
  - {x: -0.04999994, y: 0.15000005, z: 0.15000002, w: 1}
  - {x: -0.04999994, y: 0.15000005, z: 0.24999999, w: 1}
  - {x: -0.04999994, y: 0.15000005, z: 0.35000005, w: 1}
  - {x: -0.04999994, y: 0.15000005, z: 0.44999996, w: 1}
  - {x: -0.04999994, y: 0.25, z: -0.35000002, w: 1}
  - {x: -0.04999994, y: 0.25, z: -0.24999999, w: 1}
  - {x: -0.04999994, y: 0.25, z: -0.14999999, w: 1}
  - {x: -0.04999994, y: 0.25, z: -0.04999997, w: 1}
  - {x: -0.04999994, y: 0.25, z: 0.049999993, w: 1}
  - {x: -0.04999994, y: 0.25, z: 0.15000002, w: 1}
  - {x: -0.04999994, y: 0.25, z: 0.24999999, w: 1}
  - {x: -0.04999994, y: 0.25, z: 0.35000005, w: 1}
  - {x: -0.04999994, y: 0.35000008, z: -0.35000002, w: 1}
  - {x: -0.04999994, y: 0.35000008, z: -0.24999999, w: 1}
  - {x: -0.04999994, y: 0.35000008, z: -0.14999999, w: 1}
  - {x: -0.04999994, y: 0.35000008, z: -0.04999997, w: 1}
  - {x: -0.04999994, y: 0.35000008, z: 0.049999993, w: 1}
  - {x: -0.04999994, y: 0.35000008, z: 0.15000002, w: 1}
  - {x: -0.04999994, y: 0.35000008, z: 0.24999999, w: 1}
  - {x: -0.04999994, y: 0.35000008, z: 0.35000005, w: 1}
  - {x: -0.04999994, y: 0.45, z: -0.14999999, w: 1}
  - {x: -0.04999994, y: 0.45, z: -0.04999997, w: 1}
  - {x: -0.04999994, y: 0.45, z: 0.049999993, w: 1}
  - {x: -0.04999994, y: 0.45, z: 0.15000002, w: 1}
  - {x: 0.050000023, y: -0.45, z: -0.14999999, w: 1}
  - {x: 0.050000023, y: -0.45, z: -0.04999997, w: 1}
  - {x: 0.050000023, y: -0.45, z: 0.049999993, w: 1}
  - {x: 0.050000023, y: -0.45, z: 0.15000002, w: 1}
  - {x: 0.050000023, y: -0.35, z: -0.24999999, w: 1}
  - {x: 0.050000023, y: -0.35, z: -0.14999999, w: 1}
  - {x: 0.050000023, y: -0.35, z: -0.04999997, w: 1}
  - {x: 0.050000023, y: -0.35, z: 0.049999993, w: 1}
  - {x: 0.050000023, y: -0.35, z: 0.15000002, w: 1}
  - {x: 0.050000023, y: -0.35, z: 0.24999999, w: 1}
  - {x: 0.050000023, y: -0.24999996, z: -0.35000002, w: 1}
  - {x: 0.050000023, y: -0.24999996, z: -0.24999999, w: 1}
  - {x: 0.050000023, y: -0.24999996, z: -0.14999999, w: 1}
  - {x: 0.050000023, y: -0.24999996, z: -0.04999997, w: 1}
  - {x: 0.050000023, y: -0.24999996, z: 0.049999993, w: 1}
  - {x: 0.050000023, y: -0.24999996, z: 0.15000002, w: 1}
  - {x: 0.050000023, y: -0.24999996, z: 0.24999999, w: 1}
  - {x: 0.050000023, y: -0.24999996, z: 0.35000005, w: 1}
  - {x: 0.050000023, y: -0.14999996, z: -0.45000002, w: 1}
  - {x: 0.050000023, y: -0.14999996, z: -0.35000002, w: 1}
  - {x: 0.050000023, y: -0.14999996, z: -0.24999999, w: 1}
  - {x: 0.050000023, y: -0.14999996, z: -0.14999999, w: 1}
  - {x: 0.050000023, y: -0.14999996, z: -0.04999997, w: 1}
  - {x: 0.050000023, y: -0.14999996, z: 0.049999993, w: 1}
  - {x: 0.050000023, y: -0.14999996, z: 0.15000002, w: 1}
  - {x: 0.050000023, y: -0.14999996, z: 0.24999999, w: 1}
  - {x: 0.050000023, y: -0.14999996, z: 0.35000005, w: 1}
  - {x: 0.050000023, y: -0.14999996, z: 0.44999996, w: 1}
  - {x: 0.050000023, y: -0.049999945, z: -0.45000002, w: 1}
  - {x: 0.050000023, y: -0.049999945, z: -0.35000002, w: 1}
  - {x: 0.050000023, y: -0.049999945, z: -0.24999999, w: 1}
  - {x: 0.050000023, y: -0.049999945, z: -0.14999999, w: 1}
  - {x: 0.050000023, y: -0.049999945, z: -0.04999997, w: 1}
  - {x: 0.050000023, y: -0.049999945, z: 0.049999993, w: 1}
  - {x: 0.050000023, y: -0.049999945, z: 0.15000002, w: 1}
  - {x: 0.050000023, y: -0.049999945, z: 0.24999999, w: 1}
  - {x: 0.050000023, y: -0.049999945, z: 0.35000005, w: 1}
  - {x: 0.050000023, y: -0.049999945, z: 0.44999996, w: 1}
  - {x: 0.050000023, y: 0.05000002, z: -0.45000002, w: 1}
  - {x: 0.050000023, y: 0.05000002, z: -0.35000002, w: 1}
  - {x: 0.050000023, y: 0.05000002, z: -0.24999999, w: 1}
  - {x: 0.050000023, y: 0.05000002, z: -0.14999999, w: 1}
  - {x: 0.050000023, y: 0.05000002, z: -0.04999997, w: 1}
  - {x: 0.050000023, y: 0.05000002, z: 0.049999993, w: 1}
  - {x: 0.050000023, y: 0.05000002, z: 0.15000002, w: 1}
  - {x: 0.050000023, y: 0.05000002, z: 0.24999999, w: 1}
  - {x: 0.050000023, y: 0.05000002, z: 0.35000005, w: 1}
  - {x: 0.050000023, y: 0.05000002, z: 0.44999996, w: 1}
  - {x: 0.050000023, y: 0.15000005, z: -0.45000002, w: 1}
  - {x: 0.050000023, y: 0.15000005, z: -0.35000002, w: 1}
  - {x: 0.050000023, y: 0.15000005, z: -0.24999999, w: 1}
  - {x: 0.050000023, y: 0.15000005, z: -0.14999999, w: 1}
  - {x: 0.050000023, y: 0.15000005, z: -0.04999997, w: 1}
  - {x: 0.050000023, y: 0.15000005, z: 0.049999993, w: 1}
  - {x: 0.050000023, y: 0.15000005, z: 0.15000002, w: 1}
  - {x: 0.050000023, y: 0.15000005, z: 0.24999999, w: 1}
  - {x: 0.050000023, y: 0.15000005, z: 0.35000005, w: 1}
  - {x: 0.050000023, y: 0.15000005, z: 0.44999996, w: 1}
  - {x: 0.050000023, y: 0.25, z: -0.35000002, w: 1}
  - {x: 0.050000023, y: 0.25, z: -0.24999999, w: 1}
  - {x: 0.050000023, y: 0.25, z: -0.14999999, w: 1}
  - {x: 0.050000023, y: 0.25, z: -0.04999997, w: 1}
  - {x: 0.050000023, y: 0.25, z: 0.049999993, w: 1}
  - {x: 0.050000023, y: 0.25, z: 0.15000002, w: 1}
  - {x: 0.050000023, y: 0.25, z: 0.24999999, w: 1}
  - {x: 0.050000023, y: 0.25, z: 0.35000005, w: 1}
  - {x: 0.050000023, y: 0.35000008, z: -0.35000002, w: 1}
  - {x: 0.050000023, y: 0.35000008, z: -0.24999999, w: 1}
  - {x: 0.050000023, y: 0.35000008, z: -0.14999999, w: 1}
  - {x: 0.050000023, y: 0.35000008, z: -0.04999997, w: 1}
  - {x: 0.050000023, y: 0.35000008, z: 0.049999993, w: 1}
  - {x: 0.050000023, y: 0.35000008, z: 0.15000002, w: 1}
  - {x: 0.050000023, y: 0.35000008, z: 0.24999999, w: 1}
  - {x: 0.050000023, y: 0.35000008, z: 0.35000005, w: 1}
  - {x: 0.050000023, y: 0.45, z: -0.14999999, w: 1}
  - {x: 0.050000023, y: 0.45, z: -0.04999997, w: 1}
  - {x: 0.050000023, y: 0.45, z: 0.049999993, w: 1}
  - {x: 0.050000023, y: 0.45, z: 0.15000002, w: 1}
  - {x: 0.15000005, y: -0.45, z: -0.04999997, w: 1}
  - {x: 0.15000005, y: -0.45, z: 0.049999993, w: 1}
  - {x: 0.15000005, y: -0.35, z: -0.24999999, w: 1}
  - {x: 0.15000005, y: -0.35, z: -0.14999999, w: 1}
  - {x: 0.15000005, y: -0.35, z: -0.04999997, w: 1}
  - {x: 0.15000005, y: -0.35, z: 0.049999993, w: 1}
  - {x: 0.15000005, y: -0.35, z: 0.15000002, w: 1}
  - {x: 0.15000005, y: -0.35, z: 0.24999999, w: 1}
  - {x: 0.15000005, y: -0.24999996, z: -0.35000002, w: 1}
  - {x: 0.15000005, y: -0.24999996, z: -0.24999999, w: 1}
  - {x: 0.15000005, y: -0.24999996, z: -0.14999999, w: 1}
  - {x: 0.15000005, y: -0.24999996, z: -0.04999997, w: 1}
  - {x: 0.15000005, y: -0.24999996, z: 0.049999993, w: 1}
  - {x: 0.15000005, y: -0.24999996, z: 0.15000002, w: 1}
  - {x: 0.15000005, y: -0.24999996, z: 0.24999999, w: 1}
  - {x: 0.15000005, y: -0.24999996, z: 0.35000005, w: 1}
  - {x: 0.15000005, y: -0.14999996, z: -0.35000002, w: 1}
  - {x: 0.15000005, y: -0.14999996, z: -0.24999999, w: 1}
  - {x: 0.15000005, y: -0.14999996, z: -0.14999999, w: 1}
  - {x: 0.15000005, y: -0.14999996, z: -0.04999997, w: 1}
  - {x: 0.15000005, y: -0.14999996, z: 0.049999993, w: 1}
  - {x: 0.15000005, y: -0.14999996, z: 0.15000002, w: 1}
  - {x: 0.15000005, y: -0.14999996, z: 0.24999999, w: 1}
  - {x: 0.15000005, y: -0.14999996, z: 0.35000005, w: 1}
  - {x: 0.15000005, y: -0.049999945, z: -0.45000002, w: 1}
  - {x: 0.15000005, y: -0.049999945, z: -0.35000002, w: 1}
  - {x: 0.15000005, y: -0.049999945, z: -0.24999999, w: 1}
  - {x: 0.15000005, y: -0.049999945, z: -0.14999999, w: 1}
  - {x: 0.15000005, y: -0.049999945, z: -0.04999997, w: 1}
  - {x: 0.15000005, y: -0.049999945, z: 0.049999993, w: 1}
  - {x: 0.15000005, y: -0.049999945, z: 0.15000002, w: 1}
  - {x: 0.15000005, y: -0.049999945, z: 0.24999999, w: 1}
  - {x: 0.15000005, y: -0.049999945, z: 0.35000005, w: 1}
  - {x: 0.15000005, y: -0.049999945, z: 0.44999996, w: 1}
  - {x: 0.15000005, y: 0.05000002, z: -0.45000002, w: 1}
  - {x: 0.15000005, y: 0.05000002, z: -0.35000002, w: 1}
  - {x: 0.15000005, y: 0.05000002, z: -0.24999999, w: 1}
  - {x: 0.15000005, y: 0.05000002, z: -0.14999999, w: 1}
  - {x: 0.15000005, y: 0.05000002, z: -0.04999997, w: 1}
  - {x: 0.15000005, y: 0.05000002, z: 0.049999993, w: 1}
  - {x: 0.15000005, y: 0.05000002, z: 0.15000002, w: 1}
  - {x: 0.15000005, y: 0.05000002, z: 0.24999999, w: 1}
  - {x: 0.15000005, y: 0.05000002, z: 0.35000005, w: 1}
  - {x: 0.15000005, y: 0.05000002, z: 0.44999996, w: 1}
  - {x: 0.15000005, y: 0.15000005, z: -0.35000002, w: 1}
  - {x: 0.15000005, y: 0.15000005, z: -0.24999999, w: 1}
  - {x: 0.15000005, y: 0.15000005, z: -0.14999999, w: 1}
  - {x: 0.15000005, y: 0.15000005, z: -0.04999997, w: 1}
  - {x: 0.15000005, y: 0.15000005, z: 0.049999993, w: 1}
  - {x: 0.15000005, y: 0.15000005, z: 0.15000002, w: 1}
  - {x: 0.15000005, y: 0.15000005, z: 0.24999999, w: 1}
  - {x: 0.15000005, y: 0.15000005, z: 0.35000005, w: 1}
  - {x: 0.15000005, y: 0.25, z: -0.35000002, w: 1}
  - {x: 0.15000005, y: 0.25, z: -0.24999999, w: 1}
  - {x: 0.15000005, y: 0.25, z: -0.14999999, w: 1}
  - {x: 0.15000005, y: 0.25, z: -0.04999997, w: 1}
  - {x: 0.15000005, y: 0.25, z: 0.049999993, w: 1}
  - {x: 0.15000005, y: 0.25, z: 0.15000002, w: 1}
  - {x: 0.15000005, y: 0.25, z: 0.24999999, w: 1}
  - {x: 0.15000005, y: 0.25, z: 0.35000005, w: 1}
  - {x: 0.15000005, y: 0.35000008, z: -0.24999999, w: 1}
  - {x: 0.15000005, y: 0.35000008, z: -0.14999999, w: 1}
  - {x: 0.15000005, y: 0.35000008, z: -0.04999997, w: 1}
  - {x: 0.15000005, y: 0.35000008, z: 0.049999993, w: 1}
  - {x: 0.15000005, y: 0.35000008, z: 0.15000002, w: 1}
  - {x: 0.15000005, y: 0.35000008, z: 0.24999999, w: 1}
  - {x: 0.15000005, y: 0.45, z: -0.04999997, w: 1}
  - {x: 0.15000005, y: 0.45, z: 0.049999993, w: 1}
  - {x: 0.25, y: -0.35, z: -0.24999999, w: 1}
  - {x: 0.25, y: -0.35, z: -0.14999999, w: 1}
  - {x: 0.25, y: -0.35, z: -0.04999997, w: 1}
  - {x: 0.25, y: -0.35, z: 0.049999993, w: 1}
  - {x: 0.25, y: -0.35, z: 0.15000002, w: 1}
  - {x: 0.25, y: -0.35, z: 0.24999999, w: 1}
  - {x: 0.25, y: -0.24999996, z: -0.35000002, w: 1}
  - {x: 0.25, y: -0.24999996, z: -0.24999999, w: 1}
  - {x: 0.25, y: -0.24999996, z: -0.14999999, w: 1}
  - {x: 0.25, y: -0.24999996, z: -0.04999997, w: 1}
  - {x: 0.25, y: -0.24999996, z: 0.049999993, w: 1}
  - {x: 0.25, y: -0.24999996, z: 0.15000002, w: 1}
  - {x: 0.25, y: -0.24999996, z: 0.24999999, w: 1}
  - {x: 0.25, y: -0.24999996, z: 0.35000005, w: 1}
  - {x: 0.25, y: -0.14999996, z: -0.35000002, w: 1}
  - {x: 0.25, y: -0.14999996, z: -0.24999999, w: 1}
  - {x: 0.25, y: -0.14999996, z: -0.14999999, w: 1}
  - {x: 0.25, y: -0.14999996, z: -0.04999997, w: 1}
  - {x: 0.25, y: -0.14999996, z: 0.049999993, w: 1}
  - {x: 0.25, y: -0.14999996, z: 0.15000002, w: 1}
  - {x: 0.25, y: -0.14999996, z: 0.24999999, w: 1}
  - {x: 0.25, y: -0.14999996, z: 0.35000005, w: 1}
  - {x: 0.25, y: -0.049999945, z: -0.35000002, w: 1}
  - {x: 0.25, y: -0.049999945, z: -0.24999999, w: 1}
  - {x: 0.25, y: -0.049999945, z: -0.14999999, w: 1}
  - {x: 0.25, y: -0.049999945, z: -0.04999997, w: 1}
  - {x: 0.25, y: -0.049999945, z: 0.049999993, w: 1}
  - {x: 0.25, y: -0.049999945, z: 0.15000002, w: 1}
  - {x: 0.25, y: -0.049999945, z: 0.24999999, w: 1}
  - {x: 0.25, y: -0.049999945, z: 0.35000005, w: 1}
  - {x: 0.25, y: 0.05000002, z: -0.35000002, w: 1}
  - {x: 0.25, y: 0.05000002, z: -0.24999999, w: 1}
  - {x: 0.25, y: 0.05000002, z: -0.14999999, w: 1}
  - {x: 0.25, y: 0.05000002, z: -0.04999997, w: 1}
  - {x: 0.25, y: 0.05000002, z: 0.049999993, w: 1}
  - {x: 0.25, y: 0.05000002, z: 0.15000002, w: 1}
  - {x: 0.25, y: 0.05000002, z: 0.24999999, w: 1}
  - {x: 0.25, y: 0.05000002, z: 0.35000005, w: 1}
  - {x: 0.25, y: 0.15000005, z: -0.35000002, w: 1}
  - {x: 0.25, y: 0.15000005, z: -0.24999999, w: 1}
  - {x: 0.25, y: 0.15000005, z: -0.14999999, w: 1}
  - {x: 0.25, y: 0.15000005, z: -0.04999997, w: 1}
  - {x: 0.25, y: 0.15000005, z: 0.049999993, w: 1}
  - {x: 0.25, y: 0.15000005, z: 0.15000002, w: 1}
  - {x: 0.25, y: 0.15000005, z: 0.24999999, w: 1}
  - {x: 0.25, y: 0.15000005, z: 0.35000005, w: 1}
  - {x: 0.25, y: 0.25, z: -0.35000002, w: 1}
  - {x: 0.25, y: 0.25, z: -0.24999999, w: 1}
  - {x: 0.25, y: 0.25, z: -0.14999999, w: 1}
  - {x: 0.25, y: 0.25, z: -0.04999997, w: 1}
  - {x: 0.25, y: 0.25, z: 0.049999993, w: 1}
  - {x: 0.25, y: 0.25, z: 0.15000002, w: 1}
  - {x: 0.25, y: 0.25, z: 0.24999999, w: 1}
  - {x: 0.25, y: 0.25, z: 0.35000005, w: 1}
  - {x: 0.25, y: 0.35000008, z: -0.24999999, w: 1}
  - {x: 0.25, y: 0.35000008, z: -0.14999999, w: 1}
  - {x: 0.25, y: 0.35000008, z: -0.04999997, w: 1}
  - {x: 0.25, y: 0.35000008, z: 0.049999993, w: 1}
  - {x: 0.25, y: 0.35000008, z: 0.15000002, w: 1}
  - {x: 0.25, y: 0.35000008, z: 0.24999999, w: 1}
  - {x: 0.35000008, y: -0.24999996, z: -0.24999999, w: 1}
  - {x: 0.35000008, y: -0.24999996, z: -0.14999999, w: 1}
  - {x: 0.35000008, y: -0.24999996, z: -0.04999997, w: 1}
  - {x: 0.35000008, y: -0.24999996, z: 0.049999993, w: 1}
  - {x: 0.35000008, y: -0.24999996, z: 0.15000002, w: 1}
  - {x: 0.35000008, y: -0.24999996, z: 0.24999999, w: 1}
  - {x: 0.35000008, y: -0.14999996, z: -0.24999999, w: 1}
  - {x: 0.35000008, y: -0.14999996, z: -0.14999999, w: 1}
  - {x: 0.35000008, y: -0.14999996, z: -0.04999997, w: 1}
  - {x: 0.35000008, y: -0.14999996, z: 0.049999993, w: 1}
  - {x: 0.35000008, y: -0.14999996, z: 0.15000002, w: 1}
  - {x: 0.35000008, y: -0.14999996, z: 0.24999999, w: 1}
  - {x: 0.35000008, y: -0.049999945, z: -0.24999999, w: 1}
  - {x: 0.35000008, y: -0.049999945, z: -0.14999999, w: 1}
  - {x: 0.35000008, y: -0.049999945, z: -0.04999997, w: 1}
  - {x: 0.35000008, y: -0.049999945, z: 0.049999993, w: 1}
  - {x: 0.35000008, y: -0.049999945, z: 0.15000002, w: 1}
  - {x: 0.35000008, y: -0.049999945, z: 0.24999999, w: 1}
  - {x: 0.35000008, y: 0.05000002, z: -0.35000002, w: 1}
  - {x: 0.35000008, y: 0.05000002, z: -0.24999999, w: 1}
  - {x: 0.35000008, y: 0.05000002, z: -0.14999999, w: 1}
  - {x: 0.35000008, y: 0.05000002, z: -0.04999997, w: 1}
  - {x: 0.35000008, y: 0.05000002, z: 0.049999993, w: 1}
  - {x: 0.35000008, y: 0.05000002, z: 0.15000002, w: 1}
  - {x: 0.35000008, y: 0.05000002, z: 0.24999999, w: 1}
  - {x: 0.35000008, y: 0.05000002, z: 0.35000005, w: 1}
  - {x: 0.35000008, y: 0.15000005, z: -0.24999999, w: 1}
  - {x: 0.35000008, y: 0.15000005, z: -0.14999999, w: 1}
  - {x: 0.35000008, y: 0.15000005, z: -0.04999997, w: 1}
  - {x: 0.35000008, y: 0.15000005, z: 0.049999993, w: 1}
  - {x: 0.35000008, y: 0.15000005, z: 0.15000002, w: 1}
  - {x: 0.35000008, y: 0.15000005, z: 0.24999999, w: 1}
  - {x: 0.35000008, y: 0.25, z: -0.24999999, w: 1}
  - {x: 0.35000008, y: 0.25, z: -0.14999999, w: 1}
  - {x: 0.35000008, y: 0.25, z: -0.04999997, w: 1}
  - {x: 0.35000008, y: 0.25, z: 0.049999993, w: 1}
  - {x: 0.35000008, y: 0.25, z: 0.15000002, w: 1}
  - {x: 0.35000008, y: 0.25, z: 0.24999999, w: 1}
  - {x: 0.35000008, y: 0.35000008, z: -0.04999997, w: 1}
  - {x: 0.35000008, y: 0.35000008, z: 0.049999993, w: 1}
  - {x: 0.45, y: -0.14999996, z: -0.04999997, w: 1}
  - {x: 0.45, y: -0.14999996, z: 0.049999993, w: 1}
  - {x: 0.45, y: -0.049999945, z: -0.14999999, w: 1}
  - {x: 0.45, y: -0.049999945, z: -0.04999997, w: 1}
  - {x: 0.45, y: -0.049999945, z: 0.049999993, w: 1}
  - {x: 0.45, y: -0.049999945, z: 0.15000002, w: 1}
  - {x: 0.45, y: 0.05000002, z: -0.14999999, w: 1}
  - {x: 0.45, y: 0.05000002, z: -0.04999997, w: 1}
  - {x: 0.45, y: 0.05000002, z: 0.049999993, w: 1}
  - {x: 0.45, y: 0.05000002, z: 0.15000002, w: 1}
  - {x: 0.45, y: 0.15000005, z: -0.04999997, w: 1}
  - {x: 0.45, y: 0.15000005, z: 0.049999993, w: 1}
  m_maxParticles: 516
  m_springIndices: 
  m_springCoefficients: []
  m_springRestLengths: []
  m_shapeIndices: 
  m_shapeOffsets: 
  m_shapeCoefficients: []
  m_shapeCenters: []
  m_triangleIndices: 
  m_inflatable: 0
  m_inflatableVolume: 0
  m_inflatablePressure: 0
  m_inflatableStiffness: 0
  m_fixedParticles: 
  m_rebuildAsset: 0
  m_boundaryMesh: {fileID: 10207, guid: 0000000000000000e000000000000000, type: 0}
  m_meshLocalScale: {x: 1, y: 1, z: 1}
  m_meshExpansion: 0
  m_particleSpacing: 0.1
